asin,title
B0009ENFW2,Ian Anderson - Plays the Orchestral Jethro Tull
B0000D7ZDS,Volker Bengl - Magische Töne
B0000B0A0T,From Broadway to Hollywood
3570016943,Karius und Baktus
B00064HR0Q,I Believe My Heart [UK-Import]
3897771136,365 Experimente für jeden Tag
B0000CAXIE,Various Artists - Das Beste aus der ZDF Hitparade
B0000247Q5,Eloquence - Malaguena (Spanische Gitarrenmusik)
B00005QZGP,Massive Attack - Eleven Promos
3401023845,Perfect Copy
3866151101,Die roten Matrosen. SZ Junge Bibliothek Band 9
B0001U1PYO,The Difference Between Me And You Is That I'm Not On Fire
B000242BZG,Ernst Mosch und seine Original Egerlnder Musikanten - Mein Leben die Musik
3190028516,Englisch ganz leicht zum Auffrischen. 4 Audio-CDs m. bungsbuch u. Begleitheft
B00005UJYW,Rockin' Christmas
B0000256TO,I am..
B000025SZ0,Good As I Been to You
B00006RJSG,Jamiroquai - Live in Verona
3802533976,"O.C., California, Bd. 1: Der Auenseiter"
B00009AHNC,On the Rocks
B000B9UHRG,Disco Kandi 05. 05
B0008EI7RQ,Am I My Brother'S Keeper?
B00008Y4KY,Deep Purple - Perihelion
B00007BHME,Depeche Mode - The Videos 86>98 +
B00004NHJZ,Eloquence - Bach (Musikalisches Opfer)
B0007YMS2W,Last Night of the Proms 2004
B000BKSHIG,Erasure - The Erasure Show: Live in Cologne
3551552533,Harry Potter und der Feuerkelch. Bd. 4. Ausgabe fr Erwachsene
B0002UYA86,Beyond the Notes
B000003FOE,A Classical Case
B000AGK83S,I Like to Move It
3423621915,Die Stadt der wilden Gtter
B0009299KQ,That'S What I Say
B0002T1E4A,Pur - Klassisch: Live AufSchalke 2004
B000002VC5,I Robot
B0007VCV68,I Know (Unplugged Version)
3451280000,"Bibelausgaben, Die Bibel"
B000AQBALW,Molly Hatchet - Live in Hamburg (+ Audio-CD)
B00005TQ47,Bryan Adams - Live At Slane Castle
3765323063,"Der Jugend Brockhaus, 3 Bde."
3593373912,"Simplify Your Life, 2 Audio-CDs, Lim. Sonderausgabe"
B0000CGP44,Andrea Berg - Emotionen hautnah
3980710653,Wer hat Angst vor'm schwarzen Mann ...?
B00009LI6V,"Delpy,Julie"
B00006J9TY,"Freddy Quinn - Lieder, die das Leben schrieb"
B00002S5DF,Born Again
B0007SK9OM,Gods and Monsters
3937825045,Erotische Ortswechsel - Ein Erotik Hrbuch voller anregender Geschichten ber Sex an ungewhnlichen Orten
B00007KGAO,In Extremo - In Extremo Live
B0002ZCJM0,I Can'T Live a Day Without You
3937825002,Dreiecksbeziehungen Teil 1: Flotter Dreier Sex - Erotische Geschichten und sexy Texte vom Triosex mit zwei Frauen und einem Mann
3570215075,Schlimmes Ende
3937825134,"Sex am Arbeitsplatz - Erotisches Hrbuch ber reizvolle Abenteuer von Menschen, die miteinander arbeiten"
B000C4JTT2,Here I am
3821229268,Die Wilden Kerle - Wilde Tattoos
B0006B969E,Hélène Grimaud The Piano Collection
B00009YNGB,Oops! I Did It Again
B00004WIID,Arien
B0000041Q2,Verdi: Rigoletto (Gesamtaufnahme) (ital.)
3937825177,Erotik Anal - Erotische Kurzgeschichten ber exstatische Liebesabenteuer der etwas anderen Art
B0000CDUJT,Silly - 25 Jahre Silly
3785714130,"Ich schreibe, aber lesen müssen Sie selbst, 1 Audio-CD"
B000BSNPR6,Within Temptation - The silent force Tour (2 DVDs + Audio-CD)
B0000902HD,Bild Karaoke Hits
B00065VU7G,Everything I've Got In My Pocket
3401058371,"James Bond, Stille Wasser sind tödlich"
B00062137G,This May Be the Year I Disappe
3120101702,Vorsicht Bildschirm!
B00006RYOL,Magic of the Dance
B000005E4I,Klavierstücke op. 116-119
B000AANBG0,Police - Synchronicity Concert (Limited Edition)
B00028VJXC,I'm a Bluesman
B0007WD8BY,I Believe(Give a Little Bit..)
3800051753,Die Zauberin von Märchenmond
B0000A01J6,The Salieri Album
B0002UYDB0,Aber bitte mit Sahne I+II - limitierte Jubilumsedition
B00001SIBN,Klavierkonzert 4
3466457513,"Zehn kleine Krabbelfinger, 1 Audio-CD"
B00095L8U2,Live from London (DVD + CD)
B000A3VTXY,Die Lollipops - Discofieber!
3423055960,VOB - Vergabe- und Vertragsordnung fr Bauleistungen. HOAI - Honorarordnung fr Architekten und Ingenieure
3473520284,Die Abenteuer der 'schwarzen hand'
B0007VCZ50,Sting - Bring on the Night
B0009WFS2E,I Can't Relax in Deutschland
B0001CKQXS,Klavierstücke Op. 116-119
B0000CGV49,Die Toten Hosen - Im Auftrag des Herrn/Wir warten aufs Christkind (2 DVDs)
B00002695C,I'M Your Man
3898303039,"Rilke Projekt, Bis an alle Sterne, 1 Audio-CD"
3522177622,"Schule, Ballett & erster Kuss"
3800050889,"anders, Bd.3 : Der Thron von Tiernan"
B0006BLIZ4,The Rasmus - Live Letters
B0007R8A9O,Johnny Cash - Live at Montreux 1994
B0000241WM,Von ganzem Herzen
3593375559,"Simplify your life, Mit Kindern einfacher und glücklicher  leben"
B0002JZ30G,Manfred Mann's Earth Band - Angel Station in Moscow
B000249FNC,Kylie Minogue - Body Language Live
B00005RDSY,AC/DC - Stiff Upper Lip Live
3800050870,"anders, Bd.2 : Im dunklen Land"
B0000261OB,Hello I Must Be Going
389830695X,Überfliessende Himmel - Rilke Projekt Vol. 3
3520452030,Lexikon der Sprachwissenschaft
B00006LJ95,But One Day
B00008OES9,BAP - Viel Passiert
B0006H2VCM,Andrea Berg - Eine Reise durch die Seele
3789140244,"Die Kinder des Dschinn, Gefangen im Palast von Babylon"
B00009AHN2,Happy Songs for Happy People
B000BKHF9I,U2 - Vertigo
3833930136,"Die Wilden Fußballkerle, Bd. 13 - Markus, der Unbezwingbare"
B0000DJURY,Nr. 1 b-moll
B0000505HK,Robbie Williams - Where Egos Dare
3833211385,"Pferde - Freunde frs Leben, Sternentnzer, Bd. 1: Das Rtsel um den weien Hengst"
3551552002,Harry Potter und der Stein der Weisen. Bd. 1. Ausgabe fr Erwachsene
3791504649,Die wilden Hühner und die Liebe. ( Ab 10 Jahre )
3440102092,Die drei Fragezeichen : Spur ins Nichts
B0009U55PG,Requiem
B00005JIJT,Harald Schmidt Trifft Johann Sebastian Bach
B0002SLP2W,Vox
B00004WI74,Rory Gallagher - The Irish Tour '74
B00064200S,Urban Legend
B0000247K8,Kuschelklassik Vol. 3
398081890X,"Progressive Muskelentspannung nach Jacobson, 1 Audio-CD"
B0000U2094,Guns N' Roses - Welcome To The Videos
3440102076,Die drei Fragezeichen : Fuballfieber
3870676590,Briefe aus Narnia
B00005S6LX,Enchantment
3833714212,"Tintenherz, limitierte Sonderausgabe, 16 Audio-CDs"
B0002S30NE,What I Do
3791504657,Tintenherz
B000024BDU,Duets I
3468266251,"Langenscheidt Der Englisch-Kurs, 3 Bcher u. 6 Audio-CDs"
B000679QWA,Tina Turner - All The Best - The Live Collection
B000094HLD,"Händel - Giulio Cesare / Mijanovic, Kozana, von Otter, Hellekant, B. Mehta, A. Ewing, Les Musiciens du Louvre, Minkowski"
B000AGK9UU,Someday (I Will Understand)
B0001ELYGO,"Various Artists - Das Beste aus der ZDF Hitparade, Folge 2"
3800051680,"Der König von Narnia, Neuübersetzung"
B0007QCGT0,I Know
B0006H2UR8,I Believe in You
3937825061,Sex Toys. Erotische Geschichten und Liebesspiele rund ums Spielzeug fr Erwachsene. Ein Erotik Hrbuch
