asin_p1,title_p1
B000BYVJS2,Depeche Mode - A Pain that I'm Used to (DVD-Single)
B0000ADYDR,Various Artists - Bar Lounge Classics
B0000VS0HE,Various Artists - Melodien der Berge: Weihnachten
B000C5RRQS,A Pain That I'M Used to
B000B2XZ22,Steve Winwood - Soundstage: Steve Winwood
B00006RYOL,Magic of the Dance
B000C5RRQI,A Pain That I'M Used to
B000BRY67A,Michael Flatley - Celtic Tiger
B00007BKGQ,Thomas' Weihnachtsfest
B000216XGM,Procol Harum - Live at the Union Chapel
B00064HR0Q,I Believe My Heart [UK-Import]
B00006FN58,Gaelforce Dance - The Irish Dance Spectacular (NTSC)
B00007KMNF,Fireplace Lounge
B0000CFYEJ,Deutsche Weihnacht - Berühmte Lieder und Worte
B000679QWK,Blue - Best of Blue
